rdc_wave.vcd
$date
	Wed Jan 11 15:41:13 2017
$end
$version
	GTKWave Analyzer v3.3.73 (w)1999-2016 BSI
$end
$timescale
	1 s
$end
$scope module RippleDownCounterTestBench $end
$scope module dut $end
$var wire 1 $ rst $end
$var wire 4 # out[3:0] $end
$var wire 1 " clk $end
$upscope $end
$upscope $end
$enddefinitions $end
$dumpvars
#0
0"
x$
bx #
#10
1"
#20
0"
b0 #
0$
#30
1$
1"
b1111 #
#40
0"
#50
1"
b1110 #
#60
0"
#70
1"
b1101 #
#80
0"
#90
1"
b1100 #
#100
0"
#110
1"
b1011 #
#120
0"
#130
1"
b1010 #
#140
0"
#150
1"
b1001 #
#160
0"
#170
1"
b1000 #
#180
0"
#190
1"
b111 #
#200
0"
#210
1"
b110 #
#220
0"
#230
1"
b101 #
#240
0"
#250
1"
b100 #
#260
0"
#270
1"
b11 #
#280
0"
#290
1"
b10 #
#300
0"
#310
1"
b1 #
#320
0"
#330
1"
b0 #
#340
0"
#350
1"
b1111 #
#360
0"
#370
1"
b1110 #
#380
0"
#390
1"
b1101 #
#400
b0 #
0$
0"
