RippleDownCounterGateLevel.vcd
$date
	Wed Jan 11 17:41:37 2017
$end
$version
	Icarus Verilog
$end
$timescale
	1s
$end
$scope module RippleDownCounterGateLevelTestBench $end
$scope module dut $end
$var wire 1 ! clk $end
$var wire 4 " out [3:0] $end
$var wire 1 # q0 $end
$var wire 1 $ q1 $end
$var wire 1 % q2 $end
$var wire 1 & q3 $end
$var wire 1 ' qBar0 $end
$var wire 1 ( qBar1 $end
$var wire 1 ) qBar2 $end
$var wire 1 * qBar3 $end
$var wire 1 + rst $end
$var wire 1 , w1 $end
$var wire 1 - w11 $end
$var wire 1 . w13 $end
$var wire 1 / w14 $end
$var wire 1 0 w15 $end
$var wire 1 1 w2 $end
$var wire 1 2 w3 $end
$var wire 1 3 w4 $end
$var wire 1 4 w5 $end
$var wire 1 5 w6 $end
$var wire 1 6 w7 $end
$var wire 1 7 w8 $end
$var wire 1 8 w9 $end
$var reg 4 9 cur [3:0] $end
$upscope $end
$upscope $end
$enddefinitions $end
#0
$dumpvars
bx 9
x8
x7
x6
x5
x4
x3
x2
x1
x0
x/
x.
x-
x,
x+
x*
x)
x(
x'
x&
x%
x$
x#
bx "
0!
$end
#10
1!
#20
14
18
10
13
15
1-
1*
1)
1(
1'
0,
01
02
06
07
0.
0/
0&
0%
0$
0#
b0 "
b0 9
0!
0+
#30
00
03
05
0-
0*
0)
0(
0'
1,
11
12
16
17
0.
0/
b1111 "
b1111 9
1&
1%
0$
0#
1!
1+
#40
0!
#50
1$
10
0%
1-
1#
08
1(
1'
01
02
06
07
b1100 "
b1100 9
1!
#60
0!
#70
1/
0-
0#
1)
0(
0'
0,
11
12
b1011 "
b1011 9
1!
#80
0!
#90
0$
1#
00
1'
01
0/
b1010 "
b1010 9
1!
#100
0!
#110
0#
1(
0'
11
02
b1001 "
b1001 9
1!
#120
0!
#130
1%
1$
18
10
0&
15
1-
1#
04
1'
01
b1000 "
b1000 9
1!
#140
0!
#150
1.
05
0-
0#
1*
0)
0(
0'
16
17
0/
b111 "
b111 9
1!
#160
0!
#170
0$
1#
00
1'
06
0.
b110 "
b110 9
1!
#180
0!
#190
0#
1(
0'
16
07
b101 "
b101 9
1!
#200
0!
#210
1$
10
0%
1-
1#
08
1'
06
b100 "
b100 9
1!
#220
0!
#230
1/
0-
0#
1)
0(
0'
1.
b11 "
b11 9
1!
#240
0!
#250
0$
1#
00
1'
0.
0/
b10 "
b10 9
1!
#260
0!
#270
0#
1(
0'
b1 "
b1 9
1!
#280
0!
#290
1&
1%
1$
14
18
10
13
15
1-
1#
1'
b0 "
b0 9
1!
#300
0!
#310
0$
00
03
05
0-
0#
0*
0)
0(
0'
1,
11
12
16
17
0.
0/
b1111 "
b1111 9
1!
#320
0!
#330
1$
10
0%
1-
1#
08
1(
1'
01
02
06
07
b1100 "
b1100 9
1!
#340
0!
#350
1/
0-
0#
1)
0(
0'
0,
11
12
b1011 "
b1011 9
1!
#360
0!
#370
0$
1#
00
1'
01
0/
b1010 "
b1010 9
1!
#380
0!
#390
0#
1(
0'
11
02
b1001 "
b1001 9
1!
#400
18
10
13
15
1-
14
1*
1'
01
0&
b0 "
b0 9
0!
0+
